{
  "Result": "Successfully queried PSEvents Database for Associated Events and successfully requested Impedance Trace",
  "Event_Trigger": "CURRENT_SURGE",
  "Fault_Type": "Critical",
  "Fault_Level": "3H",
  "Clearance_Time": 2321,
  "Fault_Resistance": 6743,
  "Reactance": 54,
  "Substation_Busbar_Num": 127,
  "Timestamp": "2018-03-12T11:28:56.454Z",
  "Associated_Events": [
    {
      "ALARM_CIRCUIT_REF": "PR8",
      "ALARM_CIRCUIT_NAME ": "6HX",
      "ALARM_TYPE ": "VOLTAGE_SURGE",
      "ALARM_TIME ": "2018-03-12T11:27:56.454Z",
      "ALARM_BUSBAR_NUM ": "127"
    },
    {
      "ALARM_CIRCUIT_REF": "PR8",
      "ALARM_CIRCUIT_NAME ": "6HX",
      "ALARM_TYPE ": "CURRENT_SURGE",
      "ALARM_TIME ": "2018-03-12T11:28:56.454Z",
      "ALARM_BUSBAR_NUM ": "127"
    },
    {
      "ALARM_CIRCUIT_REF": "PR8",
      "ALARM_CIRCUIT_NAME ": "6HX",
      "ALARM_TYPE ": "CURRENT_SURGE",
      "ALARM_TIME ": "2018-03-12T11:30:56.454Z",
      "ALARM_BUSBAR_NUM ": "127"
    }
  ],
  "Impedance_Trace": [
    {
      "Request_Status": "PENDING",
      "Request_Time": "2018-03-13T15:21:08.095Z",
      "Circuit_Breaker": "PR8"
    }
  ]
}