{
    "inputMessageMetadata": {
        "messagePayload": {
            "connectorName": "#_custom_mule_metadata_type_#",
            "typeId": "JSONinput"
        }
    },
    "outputMessageMetadata": {},
    "id": "5c79e6b2-0bc9-40ad-af04-bf226d2d2877",
    "version": "5.2.0.0"
}